{
  "project_info": {
    "project_number": "1088127851190",
    "project_id": "fir-authentication-20419",
    "storage_bucket": "fir-authentication-20419.appspot.com"
  },
  "client": [
    {
      "client_info": {
        "mobilesdk_app_id": "1:1088127851190:android:700ef6718f9b9b7504a417",
        "android_client_info": {
          "package_name": "com.play.firebaseauthentication"
        }
      },
      "oauth_client": [
        {
          "client_id": "1088127851190-8d5bfi4gn1uaas5vgog27654pcugu60b.apps.googleusercontent.com",
          "client_type": 1,
          "android_info": {
            "package_name": "com.play.firebaseauthentication",
            "certificate_hash": "1c6ad126154c4641ba659c0e9eed644ec74166b6"
          }
        },
        {
          "client_id": "1088127851190-7drua88uofpoueesgvfj3mea7tja59dj.apps.googleusercontent.com",
          "client_type": 3
        }
      ],
      "api_key": [
        {
          "current_key": "AIzaSyCUfKRdo_-DA4RaXu0bzLoUDDezltSU_Bw"
        }
      ],
      "services": {
        "appinvite_service": {
          "other_platform_oauth_client": [
            {
              "client_id": "1088127851190-7drua88uofpoueesgvfj3mea7tja59dj.apps.googleusercontent.com",
              "client_type": 3
            }
          ]
        }
      }
    }
  ],
  "configuration_version": "1"
}